<svg
    width="187px"
    height="46px"
    viewBox="0 0 187 46"
    version="1.1"
    xmlns="http://www.w3.org/2000/svg"
>
    <title>Group 7</title>
    <g id="Page-1" stroke="none" stroke-width="1" fill="none" fill-rule="evenodd">
        <g id="Group-7" fill-rule="nonzero">
            <g id="Group" transform="translate(20.000000, 24.000000)" fill="#388E3C">
                <path
                    d="M22,12 L22,14.4050633 C19.1798276,16.556962 17.1287931,19.721519 16.1032758,21.4936709 C15.9750861,21.6202532 15.9750861,21.7468354 15.8468965,22 C15.8468965,22 15.8468965,22 15.8468965,22 L12.0012068,22 L12.0012068,12 C11.8730171,12 22,12 22,12 Z"
                    id="Path"
                ></path>
                <path
                    d="M22,2.65822785 L22,10 L12,10 L12,0 L19.3417722,0 C20.7341772,0 22,1.26582278 22,2.65822785 Z"
                    id="Path"
                ></path>
                <path
                    d="M0,12 L10,12 L10,22 L2.65822785,22 C1.13924051,22 0,20.8607595 0,19.3417722 L0,12 L0,12 Z"
                    id="Path"
                ></path>
                <path
                    d="M2.65822785,0 L10,0 L10,10 L0,10 L0,2.65822785 C0,1.26582278 1.26582278,0 2.65822785,0 Z"
                    id="Path"
                ></path>
            </g>
            <path
                d="M9.12310782,5.70913216 C11.768438,5.70913216 14.4137681,5.70913216 17.1570734,5.70913216 C17.1570734,7.01661835 17.1570734,8.32410454 17.1570734,9.93331832 C17.7449246,9.53101487 18.1368253,9.22928729 18.4307509,9.02813557 C21.8598825,6.31258732 25.2890142,3.59703908 28.7181459,0.881490831 C30.2857489,-0.325419501 32.0493023,-0.325419501 33.8128558,1.08264255 C38.7116153,4.90452527 43.6103748,8.82698385 48.5091343,12.6488666 C52.5261171,15.7667183 56.4451247,18.9851458 60.4621075,22.1029975 C61.5398346,22.9076044 62.2256609,23.913363 61.9317353,25.2208492 C61.4418594,27.7352457 58.2086781,28.7410043 55.9552487,26.9306388 C52.5261171,24.3156664 49.1949606,21.6001182 45.765829,18.8845699 C41.2589702,15.3644148 36.8500866,11.8442597 32.4412031,8.32410454 C31.4614512,7.51949765 30.8736,7.51949765 29.8938481,8.32410454 C22.1538081,14.5598079 14.3157929,20.6949354 6.37980249,26.830063 C5.79195135,27.2323664 5.20410021,27.6346698 4.51827388,27.8358216 C2.95067084,28.3387009 1.2850926,27.6346698 0.501291082,26.4277595 C-0.380485629,25.2208492 -0.0865600589,23.5110595 1.2850926,22.4047251 C3.53852198,20.5943596 5.88992654,18.7839941 8.14335592,16.8730527 C8.63323187,16.4707493 9.02513263,15.6661424 9.02513263,15.0626872 C9.22108301,12.0454114 9.12310782,8.92755971 9.12310782,5.70913216 Z"
                id="Path"
                fill="#C8DFFF"
            ></path>
            <path
                d="M152.985507,34 C153.2657,34 153.528986,33.9489051 153.775362,33.8467153 C154.021739,33.7445255 154.2343,33.6058394 154.413043,33.4306569 C154.591787,33.2554745 154.7343,33.0462287 154.84058,32.8029197 C154.94686,32.5596107 155,32.296837 155,32.0145985 C155,31.7420925 154.94686,31.4817518 154.84058,31.2335766 C154.7343,30.9854015 154.591787,30.7712895 154.413043,30.5912409 C154.2343,30.4111922 154.021739,30.2676399 153.775362,30.1605839 C153.528986,30.053528 153.2657,30 152.985507,30 C152.705314,30 152.44686,30.053528 152.210145,30.1605839 C151.97343,30.2676399 151.763285,30.4111922 151.57971,30.5912409 C151.396135,30.7712895 151.253623,30.9854015 151.152174,31.2335766 C151.050725,31.4817518 151,31.7420925 151,32.0145985 C151,32.296837 151.050725,32.5596107 151.152174,32.8029197 C151.253623,33.0462287 151.396135,33.2554745 151.57971,33.4306569 C151.763285,33.6058394 151.97343,33.7445255 152.210145,33.8467153 C152.44686,33.9489051 152.705314,34 152.985507,34 Z"
                id="."
                fill="#388E3C"
            ></path>
            <path
                d="M74.7969908,35 C76.0890351,35 77.2295127,34.8575499 78.2184236,34.5726496 C79.2073345,34.2877493 80.0347398,33.8960114 80.7006396,33.3974359 C81.3665394,32.8988604 81.8684489,32.3124406 82.2063682,31.6381766 C82.5442875,30.9639126 82.7132471,30.2326686 82.7132471,29.4444444 C82.7132471,28.7796771 82.5542263,28.1813865 82.2361846,27.6495726 C81.9181429,27.1177588 81.4982285,26.6334283 80.9764414,26.1965812 C80.4546542,25.7597341 79.8608107,25.3584995 79.194911,24.9928775 C78.5290112,24.6272555 77.8506879,24.2782526 77.1599411,23.9458689 C76.4691943,23.6134853 75.790871,23.2834758 75.1249712,22.9558405 C74.4590715,22.6282051 73.865228,22.2839506 73.3434409,21.9230769 C72.8216537,21.5622032 72.4017393,21.1728395 72.0836976,20.7549858 C71.7656559,20.337132 71.6066351,19.8717949 71.6066351,19.3589744 C71.6066351,19.0645774 71.6662679,18.7630579 71.7855335,18.454416 C71.9047992,18.145774 72.0986058,17.865622 72.3669535,17.6139601 C72.6353012,17.3622982 72.9906134,17.1557455 73.4328901,16.994302 C73.8751668,16.8328585 74.4193162,16.7521368 75.0653384,16.7521368 C75.7511158,16.7521368 76.3424746,16.8447293 76.8394147,17.0299145 C77.3363549,17.2150997 77.758754,17.4643875 78.1066121,17.7777778 C78.4544702,18.0911681 78.7476648,18.4567901 78.9861961,18.8746439 C79.2247274,19.2924976 79.4334422,19.7293447 79.6123407,20.1851852 L79.6123407,20.1851852 L82.7281553,20.1851852 C82.4995629,19.4634378 82.1715824,18.7867996 81.7442139,18.1552707 C81.3168454,17.5237417 80.7876041,16.9729345 80.1564901,16.502849 C79.5253762,16.0327635 78.7973589,15.6647673 77.9724382,15.3988604 C77.1475176,15.1329535 76.2281783,15 75.2144205,15 C73.9820089,15 72.8837712,15.1353276 71.9197074,15.4059829 C70.9556435,15.6766382 70.1406617,16.0517569 69.4747619,16.531339 C68.8088621,17.0109212 68.2994985,17.5759734 67.946671,18.2264957 C67.5938435,18.877018 67.4174297,19.5868946 67.4174297,20.3561254 C67.4174297,21.0588794 67.5714812,21.6832858 67.879584,22.2293447 C68.1876869,22.7754036 68.5951778,23.2644824 69.1020568,23.6965812 C69.6089357,24.12868 70.1853863,24.5204179 70.8314085,24.8717949 C71.4774306,25.2231719 72.138361,25.5579297 72.8141996,25.8760684 C73.4900382,26.194207 74.1509686,26.5099715 74.7969908,26.8233618 C75.4430129,27.1367521 76.0194635,27.4762583 76.5263424,27.8418803 C77.0332214,28.2075024 77.4407123,28.6134853 77.7488152,29.0598291 C78.0569181,29.5061728 78.2109695,30.014245 78.2109695,30.5840456 C78.2109695,31.039886 78.1115815,31.4221273 77.9128054,31.7307692 C77.7140294,32.0394112 77.4506511,32.2910731 77.1226706,32.485755 C76.7946901,32.6804368 76.4244697,32.8205128 76.0120094,32.9059829 C75.5995491,32.991453 75.1846041,33.034188 74.7671743,33.034188 C74.131091,33.034188 73.5720333,32.9463438 73.0900014,32.7706553 C72.6079694,32.5949668 72.1905397,32.3528015 71.8377122,32.0441595 C71.4848847,31.7355176 71.1941748,31.3722697 70.9655823,30.954416 C70.7369898,30.5365622 70.5630608,30.0854701 70.4437952,29.6011396 L70.4437952,29.6011396 L67,29.6011396 C67.1391432,30.3893637 67.3975521,31.1134853 67.7752266,31.7735043 C68.1529011,32.4335233 68.6597801,33.0009497 69.2958634,33.4757835 C69.9319468,33.9506173 70.7046887,34.3233618 71.6140892,34.5940171 C72.5234896,34.8646724 73.5844568,35 74.7969908,35 Z M90.8762844,34.4285714 C92.0492304,34.4285714 93.1356476,34.2255285 94.135536,33.8194426 C95.1354244,33.4133567 95.9983089,32.8625735 96.7241894,32.167093 C97.45007,31.4716126 98.0173143,30.657107 98.4259226,29.7235761 C98.8345308,28.7900453 99.038835,27.795835 99.038835,26.7409452 C99.038835,25.7327319 98.8321273,24.7921996 98.4187119,23.9193483 C98.0052965,23.046497 97.4356485,22.2880032 96.709768,21.643867 C95.9838874,20.9997307 95.121003,20.4932902 94.1211146,20.1245456 C93.1212262,19.7558009 92.034809,19.5714286 90.8618629,19.5714286 C89.6889169,19.5714286 88.6049033,19.7604686 87.609822,20.1385485 C86.6147408,20.5166285 85.7566635,21.0417396 85.0355901,21.7138818 C84.3145168,22.386024 83.7496759,23.1865266 83.3410677,24.1153898 C82.9324595,25.044253 82.7281553,26.0594677 82.7281553,27.1610341 C82.7281553,28.187918 82.9324595,29.1424532 83.3410677,30.0246398 C83.7496759,30.9068264 84.3169203,31.6746555 85.0428009,32.3281271 C85.7686814,32.9815987 86.6291623,33.4950406 87.6242435,33.8684529 C88.6193248,34.2418653 89.7033384,34.4285714 90.8762844,34.4285714 Z M91.4258453,32.7142857 C90.7931034,32.7142857 90.2281553,32.5338839 89.731001,32.1730803 C89.2338467,31.8122767 88.8120187,31.3249575 88.4655172,30.7111228 C88.1190157,30.0972881 87.8528624,29.3780238 87.6670572,28.5533298 C87.4812521,27.7286359 87.3883495,26.8523985 87.3883495,25.9246178 C87.3883495,25.3060973 87.4661868,24.7180343 87.6218614,24.1604287 C87.777536,23.6028232 87.9859391,23.1108183 88.2470706,22.684414 C88.5082022,22.2580097 88.8095079,21.918292 89.1509876,21.6652609 C89.4924674,21.4122298 89.8490124,21.2857143 90.2206227,21.2857143 C90.9839304,21.2857143 91.6292266,21.4637732 92.1565116,21.8198911 C92.6837965,22.1760089 93.113157,22.6586423 93.4445932,23.2677912 C93.7760295,23.8769402 94.0145631,24.586833 94.1601942,25.3974697 C94.3058252,26.2081064 94.3786408,27.0726293 94.3786408,27.9910385 C94.3786408,28.609559 94.3058252,29.2046506 94.1601942,29.7763135 C94.0145631,30.3479763 93.8086709,30.8516957 93.5425176,31.2874714 C93.2763642,31.7232472 92.9625042,32.0699936 92.6009374,32.3277104 C92.2393706,32.5854273 91.8476733,32.7142857 91.4258453,32.7142857 Z M105.021282,34.4285714 L105.021282,25.1727771 L112.905613,25.1727771 L112.905613,34.4285714 L117.679612,34.4285714 L117.679612,15 L112.905613,15 L112.905613,23.5107459 L105.021282,23.5107459 L105.021282,15 L100.203883,15 L100.203883,34.4285714 L105.021282,34.4285714 Z M124.819268,35 C125.476475,35 126.146129,34.8528056 126.82823,34.5584167 C127.510331,34.2640278 128.16007,33.8699265 128.777446,33.3761129 L128.777446,33.3761129 L128.777446,34.7293521 L133.407767,34.7293521 L133.407767,20.1428571 L128.777446,20.1428571 L128.777446,30.6838789 C128.608165,30.9402822 128.413991,31.1776926 128.194922,31.3961101 C127.975853,31.6145277 127.754294,31.804456 127.530246,31.9658951 C127.306199,32.1273342 127.08713,32.2531617 126.87304,32.3433776 C126.658949,32.4335936 126.467264,32.4787015 126.297984,32.4787015 C125.989295,32.4787015 125.700523,32.4264713 125.431665,32.3220107 C125.162808,32.2175501 124.926313,32.0727298 124.722181,31.8875497 C124.518048,31.7023695 124.356236,31.483952 124.236744,31.2322969 C124.117252,30.9806419 124.057506,30.7123682 124.057506,30.4274757 L124.057506,30.4274757 L124.057506,20.1428571 L119.427184,20.1428571 L119.427184,30.4274757 C119.427184,31.0542391 119.566592,31.645391 119.845407,32.2009314 C120.124222,32.7564717 120.505103,33.2407889 120.988051,33.653883 C121.470998,34.0669771 122.041075,34.3946035 122.698282,34.6367621 C123.355489,34.8789207 124.062484,35 124.819268,35 Z M140.547423,35 C141.20463,35 141.874284,34.8528056 142.556385,34.5584167 C143.238486,34.2640278 143.888225,33.8699265 144.505601,33.3761129 L144.505601,33.3761129 L144.505601,34.7293521 L149.135922,34.7293521 L149.135922,20.1428571 L144.505601,20.1428571 L144.505601,30.6838789 C144.336321,30.9402822 144.142146,31.1776926 143.923077,31.3961101 C143.704008,31.6145277 143.48245,31.804456 143.258402,31.9658951 C143.034354,32.1273342 142.815285,32.2531617 142.601195,32.3433776 C142.387105,32.4335936 142.195419,32.4787015 142.026139,32.4787015 C141.717451,32.4787015 141.428678,32.4264713 141.159821,32.3220107 C140.890963,32.2175501 140.654469,32.0727298 140.450336,31.8875497 C140.246204,31.7023695 140.084391,31.483952 139.964899,31.2322969 C139.845407,30.9806419 139.785661,30.7123682 139.785661,30.4274757 L139.785661,30.4274757 L139.785661,20.1428571 L135.15534,20.1428571 L135.15534,30.4274757 C135.15534,31.0542391 135.294747,31.645391 135.573562,32.2009314 C135.852377,32.7564717 136.233259,33.2407889 136.716206,33.653883 C137.199154,34.0669771 137.769231,34.3946035 138.426438,34.6367621 C139.083645,34.8789207 139.79064,35 140.547423,35 Z M160.521997,34.4285714 L169.524272,15 L166.380854,15 L160.241598,28.2300664 L153.630091,15 L148.553398,15 L158.234533,34.4285714 L160.521997,34.4285714 Z M187,34.4285714 L187,15 L183.955652,15 L183.955652,27.1710963 L172.641801,15 L169.524272,15 L169.524272,34.1461794 L172.612529,34.1461794 L172.612529,20.986711 L184.907011,34.4285714 L187,34.4285714 Z"
                id="SoHuuVN"
                fill="#D4D4D4"
            ></path>
            <path
                d="M122.510292,17 L122.552316,16.8716216 C122.676387,16.4887387 122.796455,16.2162162 122.912521,16.0540541 C123.104631,15.7747748 123.356775,15.6351351 123.668954,15.6351351 C123.845054,15.6351351 124.053173,15.6801802 124.29331,15.7702703 C124.433391,15.8198198 124.597484,15.8918919 124.785592,15.9864865 L124.785592,15.9864865 L125.367925,16.277027 C125.688107,16.4346847 126.011292,16.5743243 126.337479,16.6959459 C126.663665,16.8175676 126.894797,16.8783784 127.030875,16.8783784 C127.563179,16.8783784 127.981418,16.625 128.285592,16.1182432 C128.589766,15.6114865 128.827902,14.9054054 129,14 L129,14 L128.483705,14 C128.391652,14.4099099 128.251572,14.7398649 128.063465,14.9898649 C127.875357,15.2398649 127.621212,15.3648649 127.301029,15.3648649 C127.112922,15.3648649 126.886792,15.3153153 126.622642,15.2162162 C126.470555,15.1621622 126.262436,15.0720721 125.998285,14.9459459 L125.998285,14.9459459 L125.241852,14.5810811 C124.989708,14.463964 124.787593,14.3761261 124.635506,14.3175676 C124.32733,14.204955 124.067181,14.1486486 123.85506,14.1486486 C123.266724,14.1486486 122.796455,14.545045 122.444254,15.3378378 C122.232133,15.8153153 122.084048,16.3693694 122,17 L122,17 L122.510292,17 Z"
                id="~"
                fill="#D4D4D4"
            ></path>
            <path
                d="M94.7732899,22.1497251 C94.8840242,21.5569159 94.9980266,21.1658611 95.1152971,20.9765607 C95.2325676,20.7872603 95.4087105,20.6178862 95.6437258,20.4684386 C95.8787411,20.3189909 96.0352277,20.2181137 96.1131857,20.165807 C96.1911437,20.1135003 96.3370051,20.0176047 96.5507698,19.8781202 C97.0924224,19.5094825 97.486461,19.078575 97.7328856,18.5853976 C97.8681004,18.3163918 97.9601446,18.010024 98.0090181,17.6662943 C98.1131398,16.9340006 97.959559,16.3324736 97.5482758,15.8617134 C97.1369925,15.3909532 96.5060227,15.1555731 95.6553664,15.1555731 C94.8047101,15.1555731 94.1374412,15.3847262 93.6535598,15.8430324 C93.1696783,16.3013387 92.8894888,16.7994977 92.8129912,17.3375094 C92.7584512,17.7210918 92.8071926,18.0137602 92.9592154,18.2155146 C93.1112381,18.417269 93.3106608,18.5181462 93.5574833,18.5181462 C93.7910832,18.5181462 94.0036679,18.4334591 94.1952372,18.2640851 C94.3868065,18.094711 94.502778,17.8680487 94.5431518,17.5840981 C94.5679426,17.4097424 94.5675478,17.2652763 94.5419673,17.1506998 C94.5163868,17.0361232 94.4628261,16.9090927 94.3812853,16.7696081 L94.3067887,16.6425776 C94.2675138,16.5778169 94.2418945,16.5255102 94.2299308,16.4856575 C94.2179671,16.4458048 94.2165893,16.3934981 94.2257973,16.3287375 C94.2470466,16.1792898 94.3254564,16.0385598 94.4610266,15.9065477 C94.5965968,15.7745356 94.8010158,15.7085295 95.0742837,15.7085295 C95.4930005,15.7085295 95.7730385,15.8779036 95.9143978,16.2166517 C96.0557571,16.5553998 96.0825215,17.0336324 95.9946909,17.6513495 C95.8863193,18.4135328 95.6172293,19.1358633 95.187421,19.8183411 C94.7576127,20.5008189 94.5115428,21.0612477 94.4492114,21.4996276 L94.3699994,22.1497251 L94.7732899,22.1497251 Z"
                id="?"
                fill="#D4D4D4"
                transform="translate(95.415980, 18.652649) rotate(8.000000) translate(-95.415980, -18.652649) "
            ></path>
            <path
                d="M90.5102546,17 C90.5946368,16.6609687 90.6815094,16.4373219 90.7708723,16.3290598 C90.8602352,16.2207977 90.9944603,16.1239316 91.1735476,16.0384615 C91.3526348,15.9529915 91.4718814,15.8952991 91.5312873,15.8653846 C91.5906931,15.8354701 91.7018429,15.7806268 91.8647368,15.7008547 C92.2774889,15.4900285 92.5777558,15.2435897 92.7655372,14.9615385 C92.8685741,14.8076923 92.9387139,14.6324786 92.9759567,14.4358974 C93.0553,14.017094 92.9382677,13.6730769 92.6248601,13.4038462 C92.3114524,13.1346154 91.8306384,13 91.182418,13 C90.5341976,13 90.0257228,13.1310541 89.6569936,13.3931624 C89.2882644,13.6552707 89.0747533,13.9401709 89.0164603,14.2478632 C88.9748995,14.4672365 89.0120416,14.6346154 89.1278866,14.75 C89.2437316,14.8653846 89.3956964,14.9230769 89.5837811,14.9230769 C89.7617898,14.9230769 89.9237843,14.8746439 90.0697647,14.7777778 C90.2157451,14.6809117 90.3041182,14.5512821 90.3348839,14.3888889 C90.3537752,14.2891738 90.3534743,14.2065527 90.3339813,14.1410256 C90.3144884,14.0754986 90.2736739,14.002849 90.2115378,13.9230769 L90.1547697,13.8504274 C90.1248412,13.8133903 90.1053187,13.7834758 90.0962021,13.7606838 C90.0870854,13.7378917 90.0860355,13.7079772 90.0930523,13.6709402 C90.1092448,13.5854701 90.1689949,13.5049858 90.2723026,13.4294872 C90.3756103,13.3539886 90.5313825,13.3162393 90.7396191,13.3162393 C91.0586913,13.3162393 91.272087,13.4131054 91.3798061,13.6068376 C91.4875253,13.8005698 91.5079204,14.0740741 91.4409914,14.4273504 C91.3584096,14.8632479 91.1533566,15.2763533 90.8258324,15.6666667 C90.4983083,16.0569801 90.3107972,16.3774929 90.2632991,16.6282051 L90.2029377,17 L90.5102546,17 Z"
                id="?"
                fill="#D4D4D4"
            ></path>
            <path
                d="M130.351062,20.9840331 C130.461797,20.4406247 130.575799,20.0821578 130.69307,19.9086324 C130.81034,19.735107 130.986483,19.5798475 131.221498,19.4428538 C131.456514,19.30586 131.613,19.2133893 131.690958,19.1654415 C131.768916,19.1174937 131.914778,19.0295894 132.128542,18.9017286 C132.670195,18.5638107 133.064233,18.1688122 133.310658,17.7167329 C133.445873,17.4701442 133.537917,17.1893071 133.586791,16.8742215 C133.690912,16.2029523 133.537331,15.6515526 133.126048,15.2200224 C132.714765,14.7884922 132.083795,14.5727271 131.233139,14.5727271 C130.382483,14.5727271 129.715214,14.7827841 129.231332,15.2028982 C128.747451,15.6230122 128.467261,16.079658 128.390764,16.5728354 C128.336224,16.9244526 128.384965,17.1927319 128.536988,17.3776734 C128.689011,17.562615 128.888433,17.6550857 129.135256,17.6550857 C129.368856,17.6550857 129.58144,17.577456 129.77301,17.4221964 C129.964579,17.2669369 130.08055,17.0591631 130.120924,16.798875 C130.145715,16.639049 130.14532,16.5066217 130.11974,16.4015932 C130.094159,16.2965647 130.040599,16.18012 129.959058,16.0522592 L129.884561,15.9358146 C129.845286,15.8764506 129.819667,15.8285028 129.807703,15.7919712 C129.79574,15.7554395 129.794362,15.7074917 129.80357,15.6481277 C129.824819,15.511134 129.903229,15.3821316 130.038799,15.2611205 C130.174369,15.1401094 130.378788,15.0796038 130.652056,15.0796038 C131.070773,15.0796038 131.350811,15.2348634 131.49217,15.5453825 C131.63353,15.8559016 131.660294,16.2942815 131.572463,16.8605222 C131.464092,17.5591901 131.195002,18.2213264 130.765193,18.8469311 C130.335385,19.4725357 130.089315,19.9862622 130.026984,20.3881104 L129.947772,20.9840331 L130.351062,20.9840331 Z"
                id="?"
                fill="#D4D4D4"
                transform="translate(130.993753, 17.778380) rotate(8.000000) translate(-130.993753, -17.778380) "
            ></path>
        </g>
    </g>
</svg>
